ISSS608-G1 - Data Preparation & Cleaning
…
rename the column for easier understanding

hdi <- hdi %>% rename(hdi = ihdi)

2. Data Wrangling and Merging

BIG MAC DAT

convert date to year

big_mac$year <- year(big_mac$date)
big_mac

# A tibble: 1,386 × 10
   date       iso_a3 currency_code name       local_price dollar_ex dollar_price
   <date>     <chr>  <chr>         <chr>            <dbl>     <dbl>        <dbl>
 1 2000-04-01 ARG    ARS           Argentina         2.5      1             2.5 
 2 2000-04-01 AUS    AUD           Australia         2.59     1.68          1.54
 3 2000-04-01 BRA    BRL           Brazil            2.95     1.79          1.65
 4 2000-04-01 GBR    GBP           Britain           1.9      0.633         3.00
 5 2000-04-01 CAN    CAD           Canada            2.85     1.47          1.94
 6 2000-04-01 CHL    CLP           Chile          1260      514             2.45
 7 2000-04-01 CHN    CNY           China             9.9      8.28          1.20
 8 2000-04-01 CZE    CZK           Czech Rep…       54.4     39.1           1.39
 9 2000-04-01 DNK    DKK           Denmark          24.8      8.04          3.08
10 2000-04-01 HKG    HKD           Hong Kong        10.2      7.79          1.31
# ℹ 1,376 more rows
# ℹ 3 more variables: GDP_bigmac <dbl>, adj_price <dbl>, year <dbl>
…
# Summarize data to find the range of years available for each country
year_summary <- big_mac_combined %>%
  group_by(country) %>%
  summarize(StartYear = min(year), EndYear = max(year)) %>%
  ungroup()

# Print the summary
print(year_summary)

# A tibble: 53 × 3
   country    StartYear EndYear
   <chr>          <dbl>   <dbl>
 1 Argentina       2000    2022
 2 Australia       2000    2022
 3 Azerbaijan      2021    2022
 4 Bahrain         2021    2022
 5 Brazil          2000    2022
 6 Britain         2000    2022
 7 Canada          2000    2022
 8 Chile           2000    2022
 9 China           2000    2022
10 Colombia        2004    2022
# ℹ 43 more rows
…
Checking the missing data and highlighting the countries within the gdp_per_employed and inflation columns

missing_values_summary <- filtered_big_mac_data %>%
  filter(is.na(gdp_per_employed) | is.na(inflation)) %>% # Adjust 'price' to the column you're interested in
  group_by(country, year) %>%
  summarise(MissingCount = n(), .groups = 'drop') %>%
  arrange(country, year)

# Display the summary
print(missing_values_summary)

# A tibble: 22 × 3
   country    year MissingCount
   <chr>     <dbl>        <int>
 1 Argentina  2000            1
 2 Argentina  2001            1
 3 Argentina  2002            1
 4 Argentina  2003            1
 5 Argentina  2004            1
 6 Argentina  2005            1
 7 Argentina  2006            1
 8 Argentina  2007            1
 9 Argentina  2008            1
10 Argentina  2009            1
# ℹ 12 more rows
…
library(readxl)
arg_inflation_data <- read_excel("data/ARG_inflation_Data.xlsx")

arg_inflation_data_relevant <- arg_inflation_data %>%
  select(year, inflation)

filtered_big_mac_data_imputed <- filtered_big_mac_data %>%
  
  mutate(inflation_arg = ifelse(country == "Argentina", arg_inflation_data$inflation[match(year, arg_inflation_data$year)], NA)) %>%
  mutate(inflation = ifelse(is.na(inflation) & country == "Argentina", inflation_arg, inflation)) %>%
  select(-inflation_arg)

print(filtered_big_mac_data_imputed)

# A tibble: 747 × 17
# Groups:   year, country [747]
   country      year currency_code bmi_localprice bmi_usd_price bmi_gdpadj_price
   <chr>       <dbl> <chr>                  <dbl>         <dbl>            <dbl>
 1 Argentina    2000 ARS                     2.5           2.5              1.92
 2 Australia    2000 AUD                     2.59          1.54             2.30
 3 Brazil       2000 BRL                     2.95          1.65             1.87
 4 Britain      2000 GBP                     1.9           3.00             2.16
 5 Canada       2000 CAD                     2.85          1.94             2.25
 6 Chile        2000 CLP                  1260             2.45             1.87
 7 China        2000 CNY                     9.9           1.20             1.81
 8 Czech Repu…  2000 CZK                    54.4           1.39             1.94
 9 Denmark      2000 DKK                    24.8           3.08             2.16
10 Hong Kong    2000 HKD                    10.2           1.31             2.54
# ℹ 737 more rows
# ℹ 11 more variables: dollar_ex <dbl>, GDP_bigmac <dbl>, export_usd <dbl>,
#   import_usd <dbl>, GDP <dbl>, gdp_per_capita <dbl>, gdp_per_employed <dbl>,
#   inflation <dbl>, unemployment <dbl>, hdi <dbl>, population <dbl>
…
