ISSS608-G1 - Data Preparation & ChoroPleth
…
2. Data Wrangling and Merging

convert date to year

big_mac$date <- dmy(big_mac$date)
big_mac$year <- year(big_mac$date)

big_mac

# A tibble: 1,489 × 10
   date       iso_a3 currency_code name       local_price dollar_ex dollar_price
   <date>     <chr>  <chr>         <chr>            <dbl>     <dbl>        <dbl>
 1 2000-04-01 ARG    ARS           Argentina         2.5      1             2.5 
 2 2000-04-01 AUS    AUD           Australia         2.59     1.68          1.54
 3 2000-04-01 BRA    BRL           Brazil            2.95     1.79          1.65
 4 2000-04-01 GBR    GBP           Britain           1.9      0.633         3.00
 5 2000-04-01 CAN    CAD           Canada            2.85     1.47          1.94
 6 2000-04-01 CHL    CLP           Chile          1260      514             2.45
 7 2000-04-01 CHN    CNY           China             9.9      8.28          1.20
 8 2000-04-01 CZE    CZK           Czech Rep…       54.4     39.1           1.39
 9 2000-04-01 DNK    DKK           Denmark          24.8      8.04          3.08
10 2000-04-01 EUZ    EUR           Euro area         2.56     1.08          2.38
# ℹ 1,479 more rows
# ℹ 3 more variables: GDP_bigmac <dbl>, adj_price <dbl>, year <dbl>
…
# Summarize data to find the range of years available for each country
year_summary <- big_mac_combined %>%
  group_by(country) %>%
  summarize(StartYear = min(year), EndYear = max(year)) %>%
  ungroup()

# Print the summary
print(year_summary)

# A tibble: 52 × 3
   country    StartYear EndYear
   <chr>          <dbl>   <dbl>
 1 Argentina       2000    2023
 2 Australia       2000    2023
 3 Azerbaijan      2021    2023
 4 Bahrain         2021    2023
 5 Brazil          2000    2023
 6 Britain         2000    2023
 7 Canada          2000    2023
 8 Chile           2000    2023
 9 China           2000    2023
10 Colombia        2004    2023
# ℹ 42 more rows
…
Checking the missing data and highlighting the countries within the gdp_per_employed and inflation columns

missing_values_summary <- filtered_big_mac_data %>%
  filter(is.na(gdp_per_employed) | is.na(inflation)) %>% # Adjust 'price' to the column you're interested in
  group_by(country, year) %>%
  summarise(MissingCount = n(), .groups = 'drop') %>%
  arrange(country, year)

# Display the summary
print(missing_values_summary)

# A tibble: 22 × 3
   country    year MissingCount
   <chr>     <dbl>        <int>
 1 Argentina  2000            1
 2 Argentina  2001            1
 3 Argentina  2002            1
 4 Argentina  2003            1
 5 Argentina  2004            1
 6 Argentina  2005            1
 7 Argentina  2006            1
 8 Argentina  2007            1
 9 Argentina  2008            1
10 Argentina  2009            1
# ℹ 12 more rows
…
library(readxl)
arg_inflation_data <- read_excel("data/ARG_inflation_Data.xlsx")

arg_inflation_data_relevant <- arg_inflation_data %>%
  select(year, inflation)

filtered_big_mac_data_imputed <- filtered_big_mac_data %>%
  
  mutate(inflation_arg = ifelse(country == "Argentina", arg_inflation_data$inflation[match(year, arg_inflation_data$year)], NA)) %>%
  mutate(inflation = ifelse(is.na(inflation) & country == "Argentina", inflation_arg, inflation)) %>%
  select(-inflation_arg)

print(filtered_big_mac_data_imputed)

# A tibble: 746 × 11
# Groups:   year, country [746]
   country       currency_code local_price usd_price  year export_usd import_usd
   <chr>         <chr>               <dbl>     <dbl> <dbl>      <dbl>      <dbl>
 1 Argentina     ARS                  2.5      1      2000  28181510.  26564033.
 2 Australia     AUD                  2.59     1.68   2000  77830934.  69687520.
 3 Brazil        BRL                  2.95     1.79   2000  71812886.  58730967.
 4 Britain       GBP                  1.9      0.633  2000 332635324. 281586694.
 5 Canada        CAD                  2.85     1.47   2000 253422986. 288530016.
 6 Chile         CLP               1260      514      2000  19475339.  19627101.
 7 China         CNY                  9.9      8.28   2000 227975784. 405870847.
 8 Czech Republ… CZK                 54.4     39.1    2000  30886773.  28962283.
 9 Denmark       DKK                 24.8      8.04   2000  42192577.  43932982.
10 Hong Kong     HKD                 10.2      7.79   2000 202090587.  56752685.
# ℹ 736 more rows
# ℹ 4 more variables: GDP <dbl>, gdp_per_capita <dbl>, gdp_per_employed <dbl>,
#   inflation <dbl>
…
